{
    "cards": [
      {
        "userId": 1,
        "id": 1,
        "title": "Кожевников — о признании Малкина первой звездой дня в НХЛ: «Женя — великий игрок! Он должен держать марку»",
        "body": "Кожевников оценил игру Малкина в матче против «Ванкувера»"
      },
      {
        "userId": 1,
        "id": 2,
        "title": "Анзор Кавазашвили: «Слава богу, что УЕФА влепил нам санкции»",
        "body": "Бывший вратарь «Спартака» Анзор Кавазашвили рассказал, что думает о защитнике красно-белых Михе Мевле."
      },
      {
        "userId": 1,
        "id": 3,
        "title": "Анастасия Тихонова сыграет с Дианой Шнайдер в финале квалификации Australian Open",
        "body": "Россиянка Анастасия Тихонова вышла в финал квалификации Australian Open-2023. В полуфинале 21-летняя теннисистка обыграла На-Лэ Хан из Южной Кореи со счетом 6:3, 6:4. Спортсменки провели на корте 1 час 31 минуту. В финале квалификации Тихонова сыграет с соотечественницей Дианой Шнайдер."
      },
      {
        "userId": 1,
        "id": 4,
        "title": "Деменко — о трансферах «Зенита»: «Для чемпиона России — это не потеря. Если касается международных выступлений- другое дело»",
        "body": "Бывший полузащитник сборной России Максим Деменко в разговоре с «СЭ» прокомментировал зимние трансферы «Зенита»."
      },
      {
        "userId": 1,
        "id": 5,
        "title": "РФС ведет переговоры со сборными о товарищеском матче с Россией в марте этого года",
        "body": "РФС ведет переговоры со сборными о товарищеском матче против России в марте этого года, сообщил генеральный секретарь союза Максим Митрофанов."
      },
      {
        "userId": 1,
        "id": 6,
        "title": "Терещенко заявил, что в российском хоккее наблюдается большая проблема с кадрами",
        "body": "Трехкратный чемпион мира Алексей Терещенко заявил, что в российском хоккее наблюдается очень большая проблема с кадрами."
      }
  ]
  }